[
    {
        "group":        ["Hiragana"],
        "context":      "Hiragana",
        "english":      "",
        "japanese":     "あ",
        "romaji":       "a"
    }, 
    {
        "group":        ["Hiragana"],
        "context":      "Hiragana",
        "english":      "",
        "japanese":     "い",
        "romaji":       "i"
    }, 
    {
        "group":        ["Hiragana"],
        "context":      "Hiragana",
        "english":      "",
        "japanese":     "え",
        "romaji":       "e"
    }, 
    {
        "group":        ["Hiragana"],
        "context":      "Hiragana",
        "english":      "",
        "japanese":     "う",
        "romaji":       "u"
    }, 
    {
        "group":        ["Hiragana"],
        "context":      "Hiragana",
        "english":      "",
        "japanese":     "お",
        "romaji":       "o"
    }, 

    {
        "group":        ["Hiragana"],
        "context":      "Hiragana",
        "english":      "",
        "japanese":     "か",
        "romaji":       "ka"
    }, 
    {
        "group":        ["Hiragana"],
        "context":      "Hiragana",
        "english":      "",
        "japanese":     "き",
        "romaji":       "ki"
    }, 
    {
        "group":        ["Hiragana"],
        "context":      "Hiragana",
        "english":      "",
        "japanese":     "け",
        "romaji":       "ke"
    }, 
    {
        "group":        ["Hiragana"],
        "context":      "Hiragana",
        "english":      "",
        "japanese":     "く",
        "romaji":       "ku"
    }, 
    {
        "group":        ["Hiragana"],
        "context":      "Hiragana",
        "english":      "",
        "japanese":     "こ",
        "romaji":       "ko"
    }, 

    {
        "group":        ["Hiragana"],
        "context":      "Hiragana",
        "english":      "",
        "japanese":     "さ",
        "romaji":       "sa"
    }, 
    {
        "group":        ["Hiragana"],
        "context":      "Hiragana",
        "english":      "",
        "japanese":     "し",
        "romaji":       "shi"
    }, 
    {
        "group":        ["Hiragana"],
        "context":      "Hiragana",
        "english":      "",
        "japanese":     "せ",
        "romaji":       "se"
    }, 
    {
        "group":        ["Hiragana"],
        "context":      "Hiragana",
        "english":      "",
        "japanese":     "す",
        "romaji":       "su"
    }, 
    {
        "group":        ["Hiragana"],
        "context":      "Hiragana",
        "english":      "",
        "japanese":     "そ",
        "romaji":       "so"
    }, 

    {
        "group":        ["Hiragana"],
        "context":      "Hiragana",
        "english":      "",
        "japanese":     "た",
        "romaji":       "ta"
    }, 
    {
        "group":        ["Hiragana"],
        "context":      "Hiragana",
        "english":      "",
        "japanese":     "ち",
        "romaji":       "chi"
    }, 
    {
        "group":        ["Hiragana"],
        "context":      "Hiragana",
        "english":      "",
        "japanese":     "つ",
        "romaji":       "tsu"
    }, 
    {
        "group":        ["Hiragana"],
        "context":      "Hiragana",
        "english":      "",
        "japanese":     "て",
        "romaji":       "te"
    }, 
    {
        "group":        ["Hiragana"],
        "context":      "Hiragana",
        "english":      "",
        "japanese":     "と",
        "romaji":       "to"
    }, 

    {
        "group":        ["Hiragana"],
        "context":      "Hiragana",
        "english":      "",
        "japanese":     "な",
        "romaji":       "na"
    }, 
    {
        "group":        ["Hiragana"],
        "context":      "Hiragana",
        "english":      "",
        "japanese":     "に",
        "romaji":       "ni"
    }, 
    {
        "group":        ["Hiragana"],
        "context":      "Hiragana",
        "english":      "",
        "japanese":     "ぬ",
        "romaji":       "ne"
    }, 
    {
        "group":        ["Hiragana"],
        "context":      "Hiragana",
        "english":      "",
        "japanese":     "ね",
        "romaji":       "ne"
    }, 
    {
        "group":        ["Hiragana"],
        "context":      "Hiragana",
        "english":      "",
        "japanese":     "の",
        "romaji":       "no"
    }, 

    {
        "group":        ["Hiragana"],
        "context":      "Hiragana",
        "english":      "",
        "japanese":     "は",
        "romaji":       "ha"
    }, 
    {
        "group":        ["Hiragana"],
        "context":      "Hiragana",
        "english":      "",
        "japanese":     "ひ",
        "romaji":       "hi"
    }, 
    {
        "group":        ["Hiragana"],
        "context":      "Hiragana",
        "english":      "",
        "japanese":     "ふ",
        "romaji":       "fu"
    }, 
    {
        "group":        ["Hiragana"],
        "context":      "Hiragana",
        "english":      "",
        "japanese":     "へ",
        "romaji":       "he"
    }, 
    {
        "group":        ["Hiragana"],
        "context":      "Hiragana",
        "english":      "",
        "japanese":     "ほ",
        "romaji":       "ho"
    }, 

    {
        "group":        ["Hiragana"],
        "context":      "Hiragana",
        "english":      "",
        "japanese":     "ま",
        "romaji":       "ma"
    }, 
    {
        "group":        ["Hiragana"],
        "context":      "Hiragana",
        "english":      "",
        "japanese":     "み",
        "romaji":       "mi"
    }, 
    {
        "group":        ["Hiragana"],
        "context":      "Hiragana",
        "english":      "",
        "japanese":     "む",
        "romaji":       "mu"
    }, 
    {
        "group":        ["Hiragana"],
        "context":      "Hiragana",
        "english":      "",
        "japanese":     "め",
        "romaji":       "me"
    }, 
    {
        "group":        ["Hiragana"],
        "context":      "Hiragana",
        "english":      "",
        "japanese":     "も",
        "romaji":       "mo"
    }, 

    {
        "group":        ["Hiragana"],
        "context":      "Hiragana",
        "english":      "",
        "japanese":     "ら",
        "romaji":       "ra"
    }, 
    {
        "group":        ["Hiragana"],
        "context":      "Hiragana",
        "english":      "",
        "japanese":     "り",
        "romaji":       "ri"
    }, 
    {
        "group":        ["Hiragana"],
        "context":      "Hiragana",
        "english":      "",
        "japanese":     "る",
        "romaji":       "ru"
    }, 
    {
        "group":        ["Hiragana"],
        "context":      "Hiragana",
        "english":      "",
        "japanese":     "れ",
        "romaji":       "re"
    }, 
    {
        "group":        ["Hiragana"],
        "context":      "Hiragana",
        "english":      "",
        "japanese":     "ろ",
        "romaji":       "ro"
    }, 

    {
        "group":        ["Hiragana"],
        "context":      "Hiragana",
        "english":      "",
        "japanese":     "や",
        "romaji":       "ya"
    }, 
    {
        "group":        ["Hiragana"],
        "context":      "Hiragana",
        "english":      "",
        "japanese":     "ゆ",
        "romaji":       "yu"
    }, 
    {
        "group":        ["Hiragana"],
        "context":      "Hiragana",
        "english":      "",
        "japanese":     "よ",
        "romaji":       "yo"
    }, 
    {
        "group":        ["Hiragana"],
        "context":      "Hiragana",
        "english":      "",
        "japanese":     "わ",
        "romaji":       "wa"
    }, 
    {
        "group":        ["Hiragana"],
        "context":      "Hiragana",
        "english":      "",
        "japanese":     "を",
        "romaji":       "wo"
    },
    {
        "group":        ["Hiragana"],
        "context":      "Hiragana",
        "english":      "",
        "japanese":     "ん",
        "romaji":       "n"
    },
    {
        "group":        ["Hiragana"],
        "context":      "Hiragana",
        "english":      "",
        "japanese":     "が",
        "romaji":       "ga"
    },
    {
        "group":        ["Hiragana"],
        "context":      "Hiragana",
        "english":      "",
        "japanese":     "ぎ",
        "romaji":       "gi"
    },
    {
        "group":        ["Hiragana"],
        "context":      "Hiragana",
        "english":      "",
        "japanese":     "ぐ",
        "romaji":       "gu"
    },
    {
        "group":        ["Hiragana"],
        "context":      "Hiragana",
        "english":      "",
        "japanese":     "げ",
        "romaji":       "ge"
    },
    {
        "group":        ["Hiragana"],
        "context":      "Hiragana",
        "english":      "",
        "japanese":     "ご",
        "romaji":       "go"
    },
    {
        "group":        ["Hiragana"],
        "context":      "Hiragana",
        "english":      "",
        "japanese":     "ざ",
        "romaji":       "za"
    },
    {
        "group":        ["Hiragana"],
        "context":      "Hiragana",
        "english":      "",
        "japanese":     "じ",
        "romaji":       "ji"
    },
    {
        "group":        ["Hiragana"],
        "context":      "Hiragana",
        "english":      "",
        "japanese":     "ず",
        "romaji":       "zu"
    },
    {
        "group":        ["Hiragana"],
        "context":      "Hiragana",
        "english":      "",
        "japanese":     "ぜ",
        "romaji":       "ze"
    },
    {
        "group":        ["Hiragana"],
        "context":      "Hiragana",
        "english":      "",
        "japanese":     "ぞ",
        "romaji":       "zo"
    },
    {
        "group":        ["Hiragana"],
        "context":      "Hiragana",
        "english":      "",
        "japanese":     "だ",
        "romaji":       "da"
    },
    {
        "group":        ["Hiragana"],
        "context":      "Hiragana",
        "english":      "",
        "japanese":     "で",
        "romaji":       "de"
    },
    {
        "group":        ["Hiragana"],
        "context":      "Hiragana",
        "english":      "",
        "japanese":     "ど",
        "romaji":       "do"
    },
    {
        "group":        ["Hiragana"],
        "context":      "Hiragana",
        "english":      "",
        "japanese":     "ば",
        "romaji":       "ba"
    },
    {
        "group":        ["Hiragana"],
        "context":      "Hiragana",
        "english":      "",
        "japanese":     "び",
        "romaji":       "bi"
    },
    {
        "group":        ["Hiragana"],
        "context":      "Hiragana",
        "english":      "",
        "japanese":     "ぶ",
        "romaji":       "bu"
    },
    {
        "group":        ["Hiragana"],
        "context":      "Hiragana",
        "english":      "",
        "japanese":     "べ",
        "romaji":       "be"
    },
    {
        "group":        ["Hiragana"],
        "context":      "Hiragana",
        "english":      "",
        "japanese":     "ぼ",
        "romaji":       "bo"
    },
    {
        "group":        ["Hiragana"],
        "context":      "Hiragana",
        "english":      "",
        "japanese":     "ぱ",
        "romaji":       "pa"
    },
    {
        "group":        ["Hiragana"],
        "context":      "Hiragana",
        "english":      "",
        "japanese":     "ぴ",
        "romaji":       "pi"
    },
    {
        "group":        ["Hiragana"],
        "context":      "Hiragana",
        "english":      "",
        "japanese":     "ぷ",
        "romaji":       "pu"
    },
    {
        "group":        ["Hiragana"],
        "context":      "Hiragana",
        "english":      "",
        "japanese":     "ぺ",
        "romaji":       "pe"
    },
    {
        "group":        ["Hiragana"],
        "context":      "Hiragana",
        "english":      "",
        "japanese":     "ぽ",
        "romaji":       "po"
    }
]